from ./placeblocklists import invert_direction, blockstate_waterlogged, facing_horizontal_only, need_surface, doors, halved_plants, need_ground_below, need_farmland_below, need_water, need_surface_above


item_tag ./invert_direction {
    "values": invert_direction
}

item_tag ./blockstate_waterlogged {
    "values": blockstate_waterlogged
}

item_tag ./facing_horizontal_only {
    "values": facing_horizontal_only
}

item_tag ./need_surface {
    "values": need_surface
}

item_tag ./need_surface_above {
    "values": need_surface_above
}

item_tag ./need_farmland_below {
    "values": need_farmland_below
}

item_tag ./need_ground_below {
    "values": need_ground_below
}

item_tag ./needs_air_above {
    "values": (doors + halved_plants)
}

item_tag ./need_water {
    "values": need_water
}


block_tag ./opaque:
    values:
        - "white_stained_glass"
        - "orange_stained_glass"
        - "magenta_stained_glass"
        - "light_blue_stained_glass"
        - "yellow_stained_glass"
        - "lime_stained_glass"
        - "pink_stained_glass"
        - "gray_stained_glass"
        - "light_gray_stained_glass"
        - "cyan_stained_glass"
        - "purple_stained_glass"
        - "blue_stained_glass"
        - "brown_stained_glass"
        - "green_stained_glass"
        - "red_stained_glass"
        - "black_stained_glass"
        - "glass"
        - "acacia_log"
        - "acacia_planks"
        - "acacia_wood"
        - "mangrove_log"
        - "mangrove_planks"
        - "mangrove_wood"
        - "cherry_log"
        - "cherry_planks"
        - "cherry_wood"
        - "ancient_debris"
        - "andesite"
        - "barrel"
        - "basalt"
        - "bedrock"
        - "beehive"
        - "bee_nest"
        - "birch_log"
        - "birch_planks"
        - "birch_wood"
        - "black_concrete"
        - "black_concrete_powder"
        - "black_glazed_terracotta"
        - "black_terracotta"
        - "black_wool"
        - "blackstone"
        - "blue_concrete"
        - "blue_concrete_powder"
        - "blue_glazed_terracotta"
        - "blue_ice"
        - "blue_terracotta"
        - "blue_wool"
        - "bone_block"
        - "bookshelf"
        - "brain_coral_block"
        - "bricks"
        - "brown_concrete"
        - "brown_concrete_powder"
        - "brown_glazed_terracotta"
        - "brown_mushroom_block"
        - "brown_terracotta"
        - "brown_wool"
        - "bubble_coral_block"
        - "cartography_table"
        - "carved_pumpkin"
        - "chain_command_block"
        - "chiseled_nether_bricks"
        - "chiseled_polished_blackstone"
        - "chiseled_quartz_block"
        - "chiseled_red_sandstone"
        - "chiseled_sandstone"
        - "chiseled_stone_bricks"
        - "clay"
        - "coal_block"
        - "coal_ore"
        - "deepslate_coal_ore"
        - "coarse_dirt"
        - "cobblestone"
        - "command_block"
        - "cracked_nether_bricks"
        - "cracked_polished_blackstone_bricks"
        - "cracked_stone_bricks"
        - "crafting_table"
        - "crimson_hyphae"
        - "crimson_nylium"
        - "crimson_planks"
        - "crimson_stem"
        - "crying_obsidian"
        - "cut_red_sandstone"
        - "cut_sandstone"
        - "cyan_concrete"
        - "cyan_concrete_powder"
        - "cyan_glazed_terracotta"
        - "cyan_terracotta"
        - "cyan_wool"
        - "dark_oak_log"
        - "dark_oak_planks"
        - "dark_oak_wood"
        - "dark_prismarine"
        - "dead_brain_coral_block"
        - "dead_bubble_coral_block"
        - "dead_fire_coral_block"
        - "dead_horn_coral_block"
        - "dead_tube_coral_block"
        - "diamond_block"
        - "diamond_ore"
        - "deepslate_diamond_ore"
        - "diorite"
        - "dirt"
        - "dispenser"
        - "dried_kelp_block"
        - "dropper"
        - "emerald_block"
        - "emerald_ore"
        - "deepslate_emerald_ore"
        - "end_gateway"
        - "end_stone"
        - "end_stone_bricks"
        - "fire_coral_block"
        - "fletching_table"
        - "gilded_blackstone"
        - "gold_block"
        - "gold_ore"
        - "deepslate_gold_ore"
        - "granite"
        - "grass_block"
        - "gravel"
        - "gray_concrete"
        - "gray_concrete_powder"
        - "gray_glazed_terracotta"
        - "gray_terracotta"
        - "gray_wool"
        - "green_concrete"
        - "green_concrete_powder"
        - "green_glazed_terracotta"
        - "green_terracotta"
        - "green_wool"
        - "hay_block"
        - "honeycomb_block"
        - "horn_coral_block"
        - "infested_chiseled_stone_bricks"
        - "infested_cobblestone"
        - "infested_cracked_stone_bricks"
        - "infested_mossy_stone_bricks"
        - "infested_stone"
        - "infested_stone_bricks"
        - "infested_deepslate"
        - "iron_block"
        - "iron_ore"
        - "deepslate_iron_ore"
        - "jigsaw"
        - "jukebox"
        - "jungle_log"
        - "jungle_planks"
        - "jungle_wood"
        - "lapis_block"
        - "lapis_ore"
        - "deepslate_lapis_ore"
        - "light_blue_concrete"
        - "light_blue_concrete_powder"
        - "light_blue_glazed_terracotta"
        - "light_blue_terracotta"
        - "light_blue_wool"
        - "light_gray_concrete"
        - "light_gray_concrete_powder"
        - "light_gray_glazed_terracotta"
        - "light_gray_terracotta"
        - "light_gray_wool"
        - "lime_concrete"
        - "lime_concrete_powder"
        - "lime_glazed_terracotta"
        - "lime_terracotta"
        - "lime_wool"
        - "lodestone"
        - "loom"
        - "magenta_concrete"
        - "magenta_concrete_powder"
        - "magenta_glazed_terracotta"
        - "magenta_terracotta"
        - "magenta_wool"
        - "magma_block"
        - "melon"
        - "mossy_cobblestone"
        - "mossy_stone_bricks"
        - "mycelium"
        - "nether_bricks"
        - "nether_gold_ore"
        - "nether_quartz_ore"
        - "nether_wart_block"
        - "netherite_block"
        - "netherrack"
        - "note_block"
        - "oak_log"
        - "oak_planks"
        - "oak_wood"
        - "observer"
        - "obsidian"
        - "orange_concrete"
        - "orange_concrete_powder"
        - "orange_glazed_terracotta"
        - "orange_terracotta"
        - "orange_wool"
        - "packed_ice"
        - "pink_concrete"
        - "pink_concrete_powder"
        - "pink_glazed_terracotta"
        - "pink_terracotta"
        - "pink_wool"
        - "podzol"
        - "polished_andesite"
        - "polished_basalt"
        - "polished_blackstone"
        - "polished_blackstone_bricks"
        - "polished_diorite"
        - "polished_granite"
        - "prismarine"
        - "prismarine_bricks"
        - "pumpkin"
        - "purple_concrete"
        - "purple_concrete_powder"
        - "purple_glazed_terracotta"
        - "purple_terracotta"
        - "purple_wool"
        - "purpur_block"
        - "purpur_pillar"
        - "quartz_block"
        - "quartz_bricks"
        - "quartz_pillar"
        - "red_concrete"
        - "red_concrete_powder"
        - "red_glazed_terracotta"
        - "red_mushroom_block"
        - "red_nether_bricks"
        - "red_sand"
        - "red_sandstone"
        - "red_terracotta"
        - "red_wool"
        - "redstone_block"
        - "redstone_lamp"
        - "redstone_ore"
        - "deepslate_redstone_ore"
        - "repeating_command_block"
        - "respawn_anchor"
        - "sand"
        - "sandstone"
        - "shroomlight"
        - "smithing_table"
        - "smooth_quartz"
        - "smooth_red_sandstone"
        - "smooth_sandstone"
        - "smooth_stone"
        - "snow_block"
        - "soul_soil"
        - "sponge"
        - "spruce_log"
        - "spruce_planks"
        - "spruce_wood"
        - "stone"
        - "stone_bricks"
        - "stripped_acacia_log"
        - "stripped_acacia_wood"
        - "stripped_birch_log"
        - "stripped_birch_wood"
        - "stripped_crimson_hyphae"
        - "stripped_crimson_stem"
        - "stripped_dark_oak_log"
        - "stripped_dark_oak_wood"
        - "stripped_jungle_log"
        - "stripped_jungle_wood"
        - "stripped_oak_log"
        - "stripped_oak_wood"
        - "stripped_spruce_log"
        - "stripped_spruce_wood"
        - "stripped_mangrove_log"
        - "stripped_mangrove_wood"
        - "stripped_cherry_log"
        - "stripped_cherry_wood"
        - "stripped_warped_hyphae"
        - "stripped_warped_stem"
        - "structure_block"
        - "target"
        - "terracotta"
        - "tube_coral_block"
        - "warped_hyphae"
        - "warped_nylium"
        - "warped_planks"
        - "warped_stem"
        - "warped_wart_block"
        - "wet_sponge"
        - "white_concrete"
        - "white_concrete_powder"
        - "white_glazed_terracotta"
        - "white_terracotta"
        - "white_wool"
        - "yellow_concrete"
        - "yellow_concrete_powder"
        - "yellow_glazed_terracotta"
        - "yellow_terracotta"
        - "yellow_wool"
        - "oak_leaves"
        - "birch_leaves"
        - "dark_oak_leaves"
        - "spruce_leaves"
        - "jungle_leaves"
        - "acacia_leaves"
        - "mangrove_leaves"
        - "cherry_leaves"
        - "barrier"
        - "beacon"
        - "blast_furnace"
        - "frosted_ice"
        - "furnace"
        - "glowstone"
        - "honey_block"
        - "ice"
        - "jack_o_lantern"
        - "sea_lantern"
        - "slime_block"
        - "smoker"
        - "spawner"
        - "tnt"
        - "amethyst_block"
        - "azalea_leaves"
        - "flowering_azalea_leaves"
        - "copper_block"
        - "cut_copper"
        - "exposed_copper"
        - "exposed_cut_copper"
        - "weathered_copper"
        - "weathered_cut_copper"
        - "oxidized_copper"
        - "oxidized_cut_copper"
        - "waxed_copper_block"
        - "waxed_cut_copper"
        - "waxed_exposed_copper"
        - "waxed_exposed_cut_copper"
        - "waxed_weathered_copper"
        - "waxed_weathered_cut_copper"
        - "waxed_oxidized_copper"
        - "waxed_oxidized_cut_copper"
        - "raw_iron_block"
        - "raw_copper_block"
        - "raw_gold_block"
        - "budding_amethyst"
        - "calcite"
        - "copper_ore"
        - "deepslate_copper_ore"
        - "cobbled_deepslate"
        - "deepslate"
        - "chiseled_deepslate"
        - "polished_deepslate"
        - "deepslate_bricks"
        - "cracked_deepslate_bricks"
        - "deepslate_tiles"
        - "cracked_deepslate_tiles"
        - "reinforced_deepslate"
        - "dripstone_block"
        - "moss_block"
        - "rooted_dirt"
        - "smooth_basalt"
        - "tinted_glass"
        - "tuff"
        - "ochre_froglight"
        - "verdant_froglight"
        - "pearlescent_froglight"
        - "mangrove_roots"
        - "muddy_mangrove_roots"
        - "mud"
        - "packed_mud"
        - "mud_bricks"
        - "sculk"
        - "sculk_catalyst"
        - "sculk_catalyst"
        - "bamboo_mosaic"
        - "bamboo_planks"
        - "bamboo_block"
        - "stripped_bamboo_block"
        - "chiseled_bookshelf"
        - "suspicious_sand"
        - "suspicious_gravel"
        - "cherry_log"
        - "cherry_wood"
        - "chiseled_copper"
        - "chiseled_tuff"
        - "chiseled_tuff_bricks"
        - "copper_bulb"
        - "copper_grate"
        - "crafter"
        - "exposed_chiseled_copper"
        - "exposed_copper_bulb"
        - "exposed_copper_grate"
        - "oxidized_chiseled_copper"
        - "oxidized_copper_bulb"
        - "oxidized_copper_grate"
        - "polished_tuff"
        - "stripped_cherry_log"
        - "stripped_cherry_wood"
        - "tuff_bricks"
        - "waxed_chiseled_copper"
        - "waxed_copper_bulb"
        - "waxed_copper_grate"
        - "waxed_exposed_chiseled_copper"
        - "waxed_exposed_copper_bulb"
        - "waxed_exposed_copper_grate"
        - "waxed_oxidized_chiseled_copper"
        - "waxed_oxidized_copper_bulb"
        - "waxed_oxidized_copper_grate"
        - "waxed_weathered_chiseled_copper"
        - "waxed_weathered_copper_bulb"
        - "waxed_weathered_copper_grate"
        - "weathered_chiseled_copper"
        - "weathered_copper_bulb"
        - "weathered_copper_grate"

